name: 'Category CRUD'
description: |-

  API endpoints for managing Category CRUD operations
endpoints:
  -
    httpMethods:
      - GET
    uri: api/categories
    metadata:
      groupName: 'Category CRUD'
      groupDescription: |-

        API endpoints for managing Category CRUD operations
      subgroup: ''
      subgroupDescription: ''
      title: 'Get all categories with pagination'
      description: ''
      authenticated: true
      custom: []
    headers:
      Authorization: 'Bearer {ACCESS_TOKEN}'
      Content-Type: application/json
      Accept: application/json
    urlParameters: []
    cleanUrlParameters: []
    queryParameters: []
    cleanQueryParameters: []
    bodyParameters: []
    cleanBodyParameters: []
    fileParameters: []
    responses:
      -
        status: 200
        content: |-
          {"current_page": 1,
           "data": [
            {
             "id": 1,
             "name": "Food",
             "created_at": null,
             "updated_at": null
            },
            {
             "id": 2,
             "name": "Household items",
             "created_at": null,
             "updated_at": null
            }
           ],
           "first_page_url": "http://devot.test/api/categories?page=1",
           "from": 1,
           "last_page": 4,
           "last_page_url": "http://devot.test/api/categories?page=4",
           "links": [
            {
             "url": null,
             "label": "&laquo; Previous",
             "active": false
            },
            {
             "url": "http://devot.test/api/categories?page=1",
             "label": "1",
             "active": true
            },
            {
             "url": "http://devot.test/api/categories?page=2",
             "label": "2",
             "active": false
            },
            {
             "url": "http://devot.test/api/categories?page=3",
             "label": "3",
             "active": false
            },
            {
             "url": "http://devot.test/api/categories?page=4",
             "label": "4",
             "active": false
            },
            {
             "url": "http://devot.test/api/categories?page=2",
             "label": "Next &raquo;",
             "active": false
            }
           ],
           "next_page_url": "http://devot.test/api/categories?page=2",
           "path": "http://devot.test/api/categories",
           "per_page": 2,
           "prev_page_url": null,
           "to": 2,
           "total": 7
          }
        headers: []
        description: ''
        custom: []
    responseFields: []
    auth:
      - headers
      - Authorization
      - 'Bearer 364b6gVZck8fdEPaDe5vh1a'
    controller: null
    method: null
    route: null
    custom: []
  -
    httpMethods:
      - POST
    uri: api/categories
    metadata:
      groupName: 'Category CRUD'
      groupDescription: |-

        API endpoints for managing Category CRUD operations
      subgroup: ''
      subgroupDescription: ''
      title: 'Store new category.'
      description: ''
      authenticated: true
      custom: []
    headers:
      Authorization: 'Bearer {ACCESS_TOKEN}'
      Content-Type: application/json
      Accept: application/json
    urlParameters: []
    cleanUrlParameters: []
    queryParameters: []
    cleanQueryParameters: []
    bodyParameters:
      name:
        name: name
        description: 'Must be at least 4 characters.'
        required: true
        example: pzivgpithmhksqrlgbiuunhcyhygymmoadsbaofkqmhemhhyoozlx
        type: string
        custom: []
    cleanBodyParameters:
      name: pzivgpithmhksqrlgbiuunhcyhygymmoadsbaofkqmhemhhyoozlx
    fileParameters: []
    responses:
      -
        status: 200
        content: |-
          {
           "message": "Category successfully stored.",
          }
        headers: []
        description: ''
        custom: []
    responseFields: []
    auth:
      - headers
      - Authorization
      - 'Bearer gEvdbkcPhV845aZ1f3eaD66'
    controller: null
    method: null
    route: null
    custom: []
  -
    httpMethods:
      - GET
    uri: 'api/categories/{id}'
    metadata:
      groupName: 'Category CRUD'
      groupDescription: |-

        API endpoints for managing Category CRUD operations
      subgroup: ''
      subgroupDescription: ''
      title: 'Show single category.'
      description: ''
      authenticated: true
      custom: []
    headers:
      Authorization: 'Bearer {ACCESS_TOKEN}'
      Content-Type: application/json
      Accept: application/json
    urlParameters:
      id:
        name: id
        description: 'The ID of the category.'
        required: true
        example: 1
        type: int
        custom: []
    cleanUrlParameters:
      id: nobis
    queryParameters: []
    cleanQueryParameters: []
    bodyParameters: []
    cleanBodyParameters:
      category: 19
    fileParameters: []
    responses:
      -
        status: 200
        content: |-
          {
           "id": 1,
           "name": "Food",
           "created_at": null,
           "updated_at": null
          }
        headers: []
        description: ''
        custom: []
    responseFields: []
    auth:
      - headers
      - Authorization
      - 'Bearer vahdc6bgeDa1f5E64Z3PkV8'
    controller: null
    method: null
    route: null
    custom: []
  -
    httpMethods:
      - PUT
      - PATCH
    uri: 'api/categories/{id}'
    metadata:
      groupName: 'Category CRUD'
      groupDescription: |-

        API endpoints for managing Category CRUD operations
      subgroup: ''
      subgroupDescription: ''
      title: 'Update a category.'
      description: ''
      authenticated: true
      custom: []
    headers:
      Authorization: 'Bearer {ACCESS_TOKEN}'
      Content-Type: application/json
      Accept: application/json
    urlParameters:
      id:
        name: id
        description: 'The ID of the category.'
        required: true
        example: 19
        type: int
        custom: []
    cleanUrlParameters:
      id: saepe
    queryParameters: []
    cleanQueryParameters: []
    bodyParameters:
      name:
        name: name
        description: 'Must be at least 4 characters.'
        required: true
        example: wixssaplyfhguuevlkfpdtvdytafourjmgljrbbth
        type: string
        custom: []
    cleanBodyParameters:
      category: 18
      name: zizeexzbzdtnzglasfgfkxmgsstvbkuecmkuzh
    fileParameters: []
    responses:
      -
        status: 200
        content: |-
          {
           "message": "Category successfully updated.",
          }
        headers: []
        description: ''
        custom: []
    responseFields: []
    auth:
      - headers
      - Authorization
      - 'Bearer Dab6ah48c1vP6k3gfZde5VE'
    controller: null
    method: null
    route: null
    custom: []
  -
    httpMethods:
      - DELETE
    uri: 'api/categories/{id}'
    metadata:
      groupName: 'Category CRUD'
      groupDescription: |-

        API endpoints for managing Category CRUD operations
      subgroup: ''
      subgroupDescription: ''
      title: 'Delete a category.'
      description: ''
      authenticated: true
      custom: []
    headers:
      Authorization: 'Bearer {ACCESS_TOKEN}'
      Content-Type: application/json
      Accept: application/json
    urlParameters:
      id:
        name: id
        description: 'The ID of the category.'
        required: true
        example: 9
        type: int
        custom: []
    cleanUrlParameters:
      id: aperiam
    queryParameters: []
    cleanQueryParameters: []
    bodyParameters: []
    cleanBodyParameters:
      category: 11
    fileParameters: []
    responses:
      -
        status: 200
        content: |-
          {
           "message": "Category successfully deleted.",
          }
        headers: []
        description: ''
        custom: []
    responseFields: []
    auth:
      - headers
      - Authorization
      - 'Bearer D6cbk6dvZfE8V3aPah54eg1'
    controller: null
    method: null
    route: null
    custom: []
