name: 'Expense CRUD'
description: |-

  API endpoints for managing Expense CRUD operations
endpoints:
  -
    httpMethods:
      - GET
    uri: api/expenses
    metadata:
      groupName: 'Expense CRUD'
      groupDescription: |-

        API endpoints for managing Expense CRUD operations
      subgroup: ''
      subgroupDescription: ''
      title: 'Get all expenses with pagination'
      description: ''
      authenticated: true
      custom: []
    headers:
      Authorization: 'Bearer {ACCESS_TOKEN}'
      Content-Type: application/json
      Accept: application/json
    urlParameters: []
    cleanUrlParameters: []
    queryParameters:
      category:
        name: category
        description: 'Filter by ID of a category. Example 1.'
        required: false
        example: 17
        type: integer
        custom: []
      price_min:
        name: price_min
        description: 'Filter by minimum amount of an expense.'
        required: false
        example: 100
        type: integer
        custom: []
      price_max:
        name: price_max
        description: 'Filter by maximum amount of an expense.'
        required: false
        example: 200
        type: integer
        custom: []
      date_from:
        name: date_from
        description: 'date string Filter by date created.'
        required: false
        example: 20-5-2023
        type: string
        custom: []
      date_to:
        name: date_to
        description: 'date string Filter by date created.'
        required: false
        example: 25-5-2023
        type: string
        custom: []
    cleanQueryParameters:
      category: 17
      price_min: 100
      price_max: 200
      date_from: 20-5-2023
      date_to: 25-5-2023
    bodyParameters: []
    cleanBodyParameters: []
    fileParameters: []
    responses:
      -
        status: 200
        content: |-
          {"current_page": 1,
           "data": [
           {
             "id": 1,
             "user_id": 1,
             "category_id": 1,
             "description": "Test description...",
             "amount": "196.00",
             "created_at": "2023-06-15T12:03:40.000000Z",
             "updated_at": null
            },
            {
             "id": 2,
             "user_id": 1,
             "category_id": 2,
             "description": "Test description...",
             "amount": "4893.00",
             "created_at": "2023-06-15T12:03:40.000000Z",
             "updated_at": null
            }
           ],
           "first_page_url": "http://devot.test/api/expenses?page=1",
           "from": 1,
           "last_page": 4,
           "last_page_url": "http://devot.test/api/expenses?page=4",
           "links": [
            {
             "url": null,
             "label": "&laquo; Previous",
             "active": false
            },
            {
             "url": "http://devot.test/api/expenses?page=1",
             "label": "1",
             "active": true
            },
            {
             "url": "http://devot.test/api/expenses?page=2",
             "label": "2",
             "active": false
            },
            {
             "url": "http://devot.test/api/expenses?page=3",
             "label": "3",
             "active": false
            },
            {
             "url": "http://devot.test/api/expenses?page=4",
             "label": "4",
             "active": false
            },
            {
             "url": "http://devot.test/api/expenses?page=2",
             "label": "Next &raquo;",
             "active": false
            }
           ],
           "next_page_url": "http://devot.test/api/expenses?page=2",
           "path": "http://devot.test/api/expenses",
           "per_page": 2,
           "prev_page_url": null,
           "to": 2,
           "total": 7
          }
        headers: []
        description: ''
        custom: []
    responseFields: []
    auth:
      - headers
      - Authorization
      - 'Bearer PavD8f5Vkda3ZhEb64ec16g'
    controller: null
    method: null
    route: null
    custom: []
  -
    httpMethods:
      - POST
    uri: api/expenses
    metadata:
      groupName: 'Expense CRUD'
      groupDescription: |-

        API endpoints for managing Expense CRUD operations
      subgroup: ''
      subgroupDescription: ''
      title: 'Store new expense.'
      description: ''
      authenticated: true
      custom: []
    headers:
      Authorization: 'Bearer {ACCESS_TOKEN}'
      Content-Type: application/json
      Accept: application/json
    urlParameters: []
    cleanUrlParameters: []
    queryParameters: []
    cleanQueryParameters: []
    bodyParameters:
      category_id:
        name: category_id
        description: ''
        required: true
        example: velit
        type: string
        custom: []
      description:
        name: description
        description: 'Must be at least 8 characters. Must not be greater than 256 characters.'
        required: true
        example: 'Necessitatibus deleniti qui et id facilis.'
        type: string
        custom: []
      amount:
        name: amount
        description: ''
        required: true
        example: veritatis
        type: string
        custom: []
    cleanBodyParameters:
      category_id: velit
      description: 'Necessitatibus deleniti qui et id facilis.'
      amount: veritatis
    fileParameters: []
    responses:
      -
        status: 200
        content: |-
          {
           "message": "Expense successfully stored.",
          }
        headers: []
        description: ''
        custom: []
    responseFields: []
    auth:
      - headers
      - Authorization
      - 'Bearer b8g64hZfd1cVaP3EaDv56ek'
    controller: null
    method: null
    route: null
    custom: []
  -
    httpMethods:
      - GET
    uri: 'api/expenses/{id}'
    metadata:
      groupName: 'Expense CRUD'
      groupDescription: |-

        API endpoints for managing Expense CRUD operations
      subgroup: ''
      subgroupDescription: ''
      title: 'Show single expense.'
      description: ''
      authenticated: true
      custom: []
    headers:
      Authorization: 'Bearer {ACCESS_TOKEN}'
      Content-Type: application/json
      Accept: application/json
    urlParameters:
      id:
        name: id
        description: 'The ID of the expense.'
        required: true
        example: voluptas
        type: string
        custom: []
    cleanUrlParameters:
      id: voluptas
    queryParameters: []
    cleanQueryParameters: []
    bodyParameters:
      expense:
        name: expense
        description: ''
        required: true
        example: dolorum
        type: string
        custom: []
    cleanBodyParameters:
      expense: dolorum
    fileParameters: []
    responses:
      -
        status: 200
        content: |-
          {
            "id": 2,
            "user_id": 1,
            "category_id": 2,
            "description": "Test description...",
            "amount": "4893.00",
            "created_at": "2023-06-15T12:03:40.000000Z",
            "updated_at": null
           }
        headers: []
        description: ''
        custom: []
    responseFields: []
    auth:
      - headers
      - Authorization
      - 'Bearer vga4d8bEVefkPDah661c3Z5'
    controller: null
    method: null
    route: null
    custom: []
  -
    httpMethods:
      - PUT
      - PATCH
    uri: 'api/expenses/{id}'
    metadata:
      groupName: 'Expense CRUD'
      groupDescription: |-

        API endpoints for managing Expense CRUD operations
      subgroup: ''
      subgroupDescription: ''
      title: 'Update an expense.'
      description: ''
      authenticated: true
      custom: []
    headers:
      Authorization: 'Bearer {ACCESS_TOKEN}'
      Content-Type: application/json
      Accept: application/json
    urlParameters:
      id:
        name: id
        description: 'The ID of the expense.'
        required: true
        example: harum
        type: string
        custom: []
    cleanUrlParameters:
      id: harum
    queryParameters: []
    cleanQueryParameters: []
    bodyParameters:
      expense:
        name: expense
        description: ''
        required: true
        example: non
        type: string
        custom: []
      category_id:
        name: category_id
        description: ''
        required: false
        example: null
        type: string
        custom: []
      description:
        name: description
        description: 'Must be at least 8 characters. Must not be greater than 256 characters.'
        required: false
        example: 'Quas labore blanditiis quasi quidem.'
        type: string
        custom: []
    cleanBodyParameters:
      expense: non
      description: 'Quas labore blanditiis quasi quidem.'
    fileParameters: []
    responses:
      -
        status: 200
        content: |-
          {
           "message": "Expense successfully updated.",
          }
        headers: []
        description: ''
        custom: []
    responseFields: []
    auth:
      - headers
      - Authorization
      - 'Bearer ZvkdcE368fPbaV6e4hDga51'
    controller: null
    method: null
    route: null
    custom: []
  -
    httpMethods:
      - DELETE
    uri: 'api/expenses/{id}'
    metadata:
      groupName: 'Expense CRUD'
      groupDescription: |-

        API endpoints for managing Expense CRUD operations
      subgroup: ''
      subgroupDescription: ''
      title: 'Delete an expense.'
      description: ''
      authenticated: true
      custom: []
    headers:
      Authorization: 'Bearer {ACCESS_TOKEN}'
      Content-Type: application/json
      Accept: application/json
    urlParameters:
      id:
        name: id
        description: 'The ID of the expense.'
        required: true
        example: voluptas
        type: string
        custom: []
    cleanUrlParameters:
      id: voluptas
    queryParameters: []
    cleanQueryParameters: []
    bodyParameters:
      expense:
        name: expense
        description: ''
        required: true
        example: odio
        type: string
        custom: []
    cleanBodyParameters:
      expense: odio
    fileParameters: []
    responses:
      -
        status: 200
        content: |-
          {
           "message": "Expense successfully deleted.",
          }
        headers: []
        description: ''
        custom: []
    responseFields: []
    auth:
      - headers
      - Authorization
      - 'Bearer 6e3EDva4bf65kcgh1ZdVa8P'
    controller: null
    method: null
    route: null
    custom: []
  -
    httpMethods:
      - GET
    uri: 'api/expenses/aggregate/{term}'
    metadata:
      groupName: 'Expense CRUD'
      groupDescription: |-

        API endpoints for managing Expense CRUD operations
      subgroup: ''
      subgroupDescription: ''
      title: 'Get aggregate expenses.'
      description: ''
      authenticated: true
      custom: []
    headers:
      Authorization: 'Bearer {ACCESS_TOKEN}'
      Content-Type: application/json
      Accept: application/json
    urlParameters:
      term:
        name: term
        description: ''
        required: true
        example: fugit
        type: string
        custom: []
    cleanUrlParameters:
      term: fugit
    queryParameters: []
    cleanQueryParameters: []
    bodyParameters:
      term:
        name: term
        description: 'Must be one of <code>last_month</code>, <code>last_quarter</code>, <code>last_year</code>, or <code>this_year</code>.'
        required: true
        example: last_quarter
        type: string
        custom: []
    cleanBodyParameters:
      term: last_quarter
    fileParameters: []
    responses:
      -
        status: 200
        content: |-
          {
           "34602.00",
          }
        headers: []
        description: ''
        custom: []
    responseFields: []
    auth:
      - headers
      - Authorization
      - 'Bearer vV3h56a1Zga8ed4PDkEcb6f'
    controller: null
    method: null
    route: null
    custom: []
