## Autogenerated by Scribe. DO NOT MODIFY.

name: 'Category CRUD'
description: |-

  API endpoints for managing Category CRUD operations
endpoints:
  -
    httpMethods:
      - GET
    uri: api/categories
    metadata:
      groupName: 'Category CRUD'
      groupDescription: |-

        API endpoints for managing Category CRUD operations
      subgroup: ''
      subgroupDescription: ''
      title: 'Get all categories with pagination'
      description: ''
      authenticated: true
      custom: []
    headers:
      Authorization: 'Bearer {ACCESS_TOKEN}'
      Content-Type: application/json
      Accept: application/json
    urlParameters: []
    cleanUrlParameters: []
    queryParameters: []
    cleanQueryParameters: []
    bodyParameters: []
    cleanBodyParameters: []
    fileParameters: []
    responses:
      -
        status: 200
        content: |-
          {"current_page": 1,
           "data": [
            {
             "id": 1,
             "name": "Food",
             "created_at": null,
             "updated_at": null
            },
            {
             "id": 2,
             "name": "Household items",
             "created_at": null,
             "updated_at": null
            }
           ],
           "first_page_url": "http://devot.test/api/categories?page=1",
           "from": 1,
           "last_page": 4,
           "last_page_url": "http://devot.test/api/categories?page=4",
           "links": [
            {
             "url": null,
             "label": "&laquo; Previous",
             "active": false
            },
            {
             "url": "http://devot.test/api/categories?page=1",
             "label": "1",
             "active": true
            },
            {
             "url": "http://devot.test/api/categories?page=2",
             "label": "2",
             "active": false
            },
            {
             "url": "http://devot.test/api/categories?page=3",
             "label": "3",
             "active": false
            },
            {
             "url": "http://devot.test/api/categories?page=4",
             "label": "4",
             "active": false
            },
            {
             "url": "http://devot.test/api/categories?page=2",
             "label": "Next &raquo;",
             "active": false
            }
           ],
           "next_page_url": "http://devot.test/api/categories?page=2",
           "path": "http://devot.test/api/categories",
           "per_page": 2,
           "prev_page_url": null,
           "to": 2,
           "total": 7
          }
        headers: []
        description: ''
        custom: []
    responseFields: []
    auth:
      - headers
      - Authorization
      - 'Bearer evaagP6f3EdZV54ch16k8bD'
    controller: null
    method: null
    route: null
    custom: []
  -
    httpMethods:
      - POST
    uri: api/categories
    metadata:
      groupName: 'Category CRUD'
      groupDescription: |-

        API endpoints for managing Category CRUD operations
      subgroup: ''
      subgroupDescription: ''
      title: 'Store new category.'
      description: ''
      authenticated: true
      custom: []
    headers:
      Authorization: 'Bearer {ACCESS_TOKEN}'
      Content-Type: application/json
      Accept: application/json
    urlParameters: []
    cleanUrlParameters: []
    queryParameters: []
    cleanQueryParameters: []
    bodyParameters:
      name:
        name: name
        description: 'Must be at least 4 characters.'
        required: true
        example: fmwlnmvyidlmxvkxtilhazp
        type: string
        custom: []
    cleanBodyParameters:
      name: fmwlnmvyidlmxvkxtilhazp
    fileParameters: []
    responses:
      -
        status: 200
        content: |-
          {
           "message": "Category successfully stored.",
          }
        headers: []
        description: ''
        custom: []
    responseFields: []
    auth:
      - headers
      - Authorization
      - 'Bearer vP5DfV61Zaa8ch34Eegdbk6'
    controller: null
    method: null
    route: null
    custom: []
  -
    httpMethods:
      - GET
    uri: 'api/categories/{id}'
    metadata:
      groupName: 'Category CRUD'
      groupDescription: |-

        API endpoints for managing Category CRUD operations
      subgroup: ''
      subgroupDescription: ''
      title: 'Show single category.'
      description: ''
      authenticated: true
      custom: []
    headers:
      Authorization: 'Bearer {ACCESS_TOKEN}'
      Content-Type: application/json
      Accept: application/json
    urlParameters:
      id:
        name: id
        description: 'The ID of the category.'
        required: true
        example: nam
        type: string
        custom: []
    cleanUrlParameters:
      id: nam
    queryParameters: []
    cleanQueryParameters: []
    bodyParameters:
      category:
        name: category
        description: ''
        required: true
        example: 12
        type: integer
        custom: []
    cleanBodyParameters:
      category: 12
    fileParameters: []
    responses:
      -
        status: 200
        content: |-
          {
           "id": 1,
           "name": "Food",
           "created_at": null,
           "updated_at": null
          }
        headers: []
        description: ''
        custom: []
    responseFields: []
    auth:
      - headers
      - Authorization
      - 'Bearer Pg6b65cdakZah18Dv43VefE'
    controller: null
    method: null
    route: null
    custom: []
  -
    httpMethods:
      - PUT
      - PATCH
    uri: 'api/categories/{id}'
    metadata:
      groupName: 'Category CRUD'
      groupDescription: |-

        API endpoints for managing Category CRUD operations
      subgroup: ''
      subgroupDescription: ''
      title: 'Update a category.'
      description: ''
      authenticated: true
      custom: []
    headers:
      Authorization: 'Bearer {ACCESS_TOKEN}'
      Content-Type: application/json
      Accept: application/json
    urlParameters:
      id:
        name: id
        description: 'The ID of the category.'
        required: true
        example: eum
        type: string
        custom: []
    cleanUrlParameters:
      id: eum
    queryParameters: []
    cleanQueryParameters: []
    bodyParameters:
      category:
        name: category
        description: ''
        required: true
        example: 16
        type: integer
        custom: []
      name:
        name: name
        description: 'Must be at least 4 characters.'
        required: true
        example: xskbzfttcgwbhqyeqtoeythfmqpm
        type: string
        custom: []
    cleanBodyParameters:
      category: 16
      name: xskbzfttcgwbhqyeqtoeythfmqpm
    fileParameters: []
    responses:
      -
        status: 200
        content: |-
          {
           "message": "Category successfully updated.",
          }
        headers: []
        description: ''
        custom: []
    responseFields: []
    auth:
      - headers
      - Authorization
      - 'Bearer d5vbcZh863fDkVeEagP4a61'
    controller: null
    method: null
    route: null
    custom: []
  -
    httpMethods:
      - DELETE
    uri: 'api/categories/{id}'
    metadata:
      groupName: 'Category CRUD'
      groupDescription: |-

        API endpoints for managing Category CRUD operations
      subgroup: ''
      subgroupDescription: ''
      title: 'Delete a category.'
      description: ''
      authenticated: true
      custom: []
    headers:
      Authorization: 'Bearer {ACCESS_TOKEN}'
      Content-Type: application/json
      Accept: application/json
    urlParameters:
      id:
        name: id
        description: 'The ID of the category.'
        required: true
        example: dignissimos
        type: string
        custom: []
    cleanUrlParameters:
      id: dignissimos
    queryParameters: []
    cleanQueryParameters: []
    bodyParameters:
      category:
        name: category
        description: ''
        required: true
        example: 3
        type: integer
        custom: []
    cleanBodyParameters:
      category: 3
    fileParameters: []
    responses:
      -
        status: 200
        content: |-
          {
           "message": "Category successfully deleted.",
          }
        headers: []
        description: ''
        custom: []
    responseFields: []
    auth:
      - headers
      - Authorization
      - 'Bearer d6ga13kbaDEVvfPe458Zc6h'
    controller: null
    method: null
    route: null
    custom: []
